<svg width="201" height="140" viewBox="0 0 201 140" fill="none" xmlns="http://www.w3.org/2000/svg">
<g clip-path="url(#clip0)">
<path d="M180.2 30.1325C180.2 30.1325 145.389 91.8027 59.1471 88.3451C-27.095 84.8875 15.5389 31.0919 84.7108 19.1822C84.7108 19.1822 136.341 10.1526 178.7 20.7191C178.7 20.7191 92.7379 7.7297 55.6452 66.2884C55.6403 66.2884 103.258 76.8173 180.2 30.1325Z" fill="#F16505"/>
<path d="M0 76.0466C0 76.0466 16.2923 98.5247 51.1273 98.5247C85.9623 98.5247 127.568 69.3271 66.4159 49.3435C66.4159 49.3435 40.1014 41.0814 43.348 33.9725C46.5947 26.8636 127.318 -5.21969 201.002 18.0277C201.002 18.0277 189.974 -3.68278 79.4493 0.544198C79.4493 0.544198 27.8189 3.8099 10.2775 21.8691C-7.26394 39.9283 -0.750937 55.3745 54.136 66.2871C54.136 66.2871 62.2809 67.6039 51.3776 76.2385C40.4744 84.873 19.0482 88.246 0 76.0466Z" fill="#0A9368"/>
<path d="M3.17285 123.354V128.364H1.48535V115.567H6.20508C7.60547 115.567 8.70117 115.924 9.49219 116.639C10.2891 117.354 10.6875 118.3 10.6875 119.478C10.6875 120.72 10.2979 121.678 9.51855 122.352C8.74512 123.02 7.63477 123.354 6.1875 123.354H3.17285ZM3.17285 121.974H6.20508C7.10742 121.974 7.79883 121.763 8.2793 121.341C8.75977 120.913 9 120.298 9 119.495C9 118.734 8.75977 118.124 8.2793 117.667C7.79883 117.21 7.13965 116.973 6.30176 116.955H3.17285V121.974ZM21.6826 116.955H17.5693V128.364H15.8906V116.955H11.7861V115.567H21.6826V116.955ZM21.4453 127.511C21.4453 127.23 21.5273 126.995 21.6914 126.808C21.8613 126.62 22.1133 126.527 22.4473 126.527C22.7812 126.527 23.0332 126.62 23.2031 126.808C23.3789 126.995 23.4668 127.23 23.4668 127.511C23.4668 127.781 23.3789 128.006 23.2031 128.188C23.0332 128.37 22.7812 128.46 22.4473 128.46C22.1133 128.46 21.8613 128.37 21.6914 128.188C21.5273 128.006 21.4453 127.781 21.4453 127.511ZM34.6465 122.66C33.1992 122.244 32.1445 121.734 31.4824 121.13C30.8262 120.521 30.498 119.771 30.498 118.88C30.498 117.872 30.8994 117.04 31.7021 116.384C32.5107 115.722 33.5596 115.391 34.8486 115.391C35.7275 115.391 36.5098 115.561 37.1953 115.901C37.8867 116.241 38.4199 116.709 38.7949 117.307C39.1758 117.905 39.3662 118.558 39.3662 119.267H37.6699C37.6699 118.494 37.4238 117.887 36.9316 117.448C36.4395 117.002 35.7451 116.78 34.8486 116.78C34.0166 116.78 33.3662 116.964 32.8975 117.333C32.4346 117.697 32.2031 118.203 32.2031 118.854C32.2031 119.375 32.4229 119.818 32.8623 120.181C33.3076 120.538 34.0605 120.867 35.1211 121.165C36.1875 121.464 37.0195 121.795 37.6172 122.159C38.2207 122.516 38.666 122.935 38.9531 123.415C39.2461 123.896 39.3926 124.461 39.3926 125.112C39.3926 126.149 38.9883 126.981 38.1797 127.608C37.3711 128.229 36.29 128.539 34.9365 128.539C34.0576 128.539 33.2373 128.372 32.4756 128.038C31.7139 127.699 31.125 127.236 30.709 126.65C30.2988 126.064 30.0938 125.399 30.0938 124.655H31.79C31.79 125.428 32.0742 126.04 32.6426 126.492C33.2168 126.937 33.9814 127.16 34.9365 127.16C35.8271 127.16 36.5098 126.978 36.9844 126.615C37.459 126.251 37.6963 125.756 37.6963 125.129C37.6963 124.502 37.4766 124.019 37.0371 123.679C36.5977 123.333 35.8008 122.994 34.6465 122.66ZM50.5723 115.567V124.268C50.5664 125.475 50.1855 126.462 49.4297 127.23C48.6797 127.997 47.6602 128.428 46.3711 128.522L45.9229 128.539C44.5225 128.539 43.4062 128.161 42.5742 127.406C41.7422 126.65 41.3203 125.61 41.3086 124.286V115.567H42.9785V124.233C42.9785 125.159 43.2334 125.879 43.7432 126.395C44.2529 126.905 44.9795 127.16 45.9229 127.16C46.8779 127.16 47.6074 126.905 48.1113 126.395C48.6211 125.885 48.876 125.167 48.876 124.242V115.567H50.5723ZM62.6836 126.685C62.25 127.306 61.6436 127.772 60.8643 128.082C60.0908 128.387 59.1885 128.539 58.1572 128.539C57.1143 128.539 56.1885 128.296 55.3799 127.81C54.5713 127.318 53.9443 126.62 53.499 125.718C53.0596 124.816 52.834 123.77 52.8223 122.58V121.464C52.8223 119.536 53.2705 118.042 54.167 116.982C55.0693 115.921 56.335 115.391 57.9639 115.391C59.2998 115.391 60.375 115.734 61.1895 116.419C62.0039 117.099 62.502 118.066 62.6836 119.32H60.9961C60.6797 117.626 59.6719 116.78 57.9727 116.78C56.8418 116.78 55.9834 117.178 55.3975 117.975C54.8174 118.766 54.5244 119.914 54.5186 121.42V122.466C54.5186 123.902 54.8467 125.044 55.5029 125.894C56.1592 126.738 57.0469 127.16 58.166 127.16C58.7988 127.16 59.3525 127.089 59.8271 126.949C60.3018 126.808 60.6943 126.571 61.0049 126.237V123.363H58.043V121.992H62.6836V126.685ZM67.3154 128.364H65.6279V115.567H67.3154V128.364ZM78.9873 116.955H74.874V128.364H73.1953V116.955H69.0908V115.567H78.9873V116.955ZM84.9287 121.992L88.2686 115.567H90.1846L85.7725 123.591V128.364H84.085V123.591L79.6729 115.567H81.6064L84.9287 121.992ZM105.715 124.303C105.557 125.657 105.056 126.703 104.212 127.441C103.374 128.173 102.258 128.539 100.863 128.539C99.3516 128.539 98.1387 127.997 97.2246 126.913C96.3164 125.829 95.8623 124.379 95.8623 122.563V121.332C95.8623 120.143 96.0732 119.097 96.4951 118.195C96.9229 117.292 97.5264 116.601 98.3057 116.12C99.085 115.634 99.9873 115.391 101.013 115.391C102.372 115.391 103.462 115.772 104.282 116.534C105.103 117.289 105.58 118.338 105.715 119.68H104.019C103.872 118.661 103.553 117.922 103.061 117.465C102.574 117.008 101.892 116.78 101.013 116.78C99.9346 116.78 99.0879 117.178 98.4727 117.975C97.8633 118.772 97.5586 119.906 97.5586 121.376V122.616C97.5586 124.004 97.8486 125.109 98.4287 125.929C99.0088 126.749 99.8203 127.16 100.863 127.16C101.801 127.16 102.519 126.949 103.017 126.527C103.521 126.099 103.854 125.358 104.019 124.303H105.715ZM112.72 123.187H109.714V128.364H108.018V115.567H112.254C113.695 115.567 114.803 115.895 115.576 116.551C116.355 117.207 116.745 118.162 116.745 119.416C116.745 120.213 116.528 120.908 116.095 121.499C115.667 122.091 115.069 122.534 114.302 122.827L117.308 128.258V128.364H115.497L112.72 123.187ZM109.714 121.807H112.307C113.145 121.807 113.81 121.59 114.302 121.157C114.8 120.723 115.049 120.143 115.049 119.416C115.049 118.625 114.812 118.019 114.337 117.597C113.868 117.175 113.188 116.961 112.298 116.955H109.714V121.807ZM126.352 122.449H120.806V126.984H127.248V128.364H119.118V115.567H127.16V116.955H120.806V121.069H126.352V122.449ZM136.415 125.024H131.054L129.85 128.364H128.109L132.996 115.567H134.473L139.368 128.364H137.637L136.415 125.024ZM131.563 123.635H135.914L133.734 117.65L131.563 123.635ZM148.79 116.955H144.677V128.364H142.998V116.955H138.894V115.567H148.79V116.955ZM152.499 128.364H150.812V115.567H152.499V128.364ZM159.829 126.122L163.485 115.567H165.331L160.585 128.364H159.091L154.354 115.567H156.19L159.829 126.122ZM174.287 122.449H168.741V126.984H175.184V128.364H167.054V115.567H175.096V116.955H168.741V121.069H174.287V122.449ZM181.055 122.66C179.607 122.244 178.553 121.734 177.891 121.13C177.234 120.521 176.906 119.771 176.906 118.88C176.906 117.872 177.308 117.04 178.11 116.384C178.919 115.722 179.968 115.391 181.257 115.391C182.136 115.391 182.918 115.561 183.604 115.901C184.295 116.241 184.828 116.709 185.203 117.307C185.584 117.905 185.774 118.558 185.774 119.267H184.078C184.078 118.494 183.832 117.887 183.34 117.448C182.848 117.002 182.153 116.78 181.257 116.78C180.425 116.78 179.774 116.964 179.306 117.333C178.843 117.697 178.611 118.203 178.611 118.854C178.611 119.375 178.831 119.818 179.271 120.181C179.716 120.538 180.469 120.867 181.529 121.165C182.596 121.464 183.428 121.795 184.025 122.159C184.629 122.516 185.074 122.935 185.361 123.415C185.654 123.896 185.801 124.461 185.801 125.112C185.801 126.149 185.396 126.981 184.588 127.608C183.779 128.229 182.698 128.539 181.345 128.539C180.466 128.539 179.646 128.372 178.884 128.038C178.122 127.699 177.533 127.236 177.117 126.65C176.707 126.064 176.502 125.399 176.502 124.655H178.198C178.198 125.428 178.482 126.04 179.051 126.492C179.625 126.937 180.39 127.16 181.345 127.16C182.235 127.16 182.918 126.978 183.393 126.615C183.867 126.251 184.104 125.756 184.104 125.129C184.104 124.502 183.885 124.019 183.445 123.679C183.006 123.333 182.209 122.994 181.055 122.66Z" fill="black"/>
</g>
<defs>
<clipPath id="clip0">
<rect width="201" height="140" fill="white"/>
</clipPath>
</defs>
</svg>
