[
	{
		"timestamp": 1653399597679,
		"ticks": 250,
		"duration": 1857,
		"diff": 1857,
		"ticksPerSecond": 134.62574044157242
	},
	{
		"timestamp": 1653399603910,
		"ticks": 250,
		"duration": 6228,
		"diff": 4371,
		"ticksPerSecond": 40.141297366730896
	},
	{
		"timestamp": 1653399843590,
		"ticks": 250,
		"duration": 239678,
		"diff": 233450,
		"ticksPerSecond": 1.043066113702551
	},
	{
		"timestamp": 1653399865466,
		"ticks": 250,
		"duration": 21832,
		"diff": 217846,
		"ticksPerSecond": 11.451080982044704
	}
]